Sentiment Analysis - Jules Verne Novels
…
10/29/2021

The sentiments datasets

The function `get_sentiments() allows us to get specific sentiment lexicons with the appropriate measures for each one.

library(tidytext)

get_sentiments("afinn")

library(tidytext)
get_sentiments("bing")

## # A tibble: 6,786 x 2
##    word        sentiment
##    <chr>       <chr>    
##  1 2-faces     negative 
##  2 abnormal    negative 
##  3 abolish     negative 
##  4 abominable  negative 
##  5 abominably  negative 
##  6 abominate   negative 
##  7 abomination negative 
##  8 abort       negative 
##  9 aborted     negative 
## 10 aborts      negative 
## # ... with 6,776 more rows
…
Remove stop words that are not useful for an analysis, typically extremely common words such as the, of, to, and so forth in English.

data("stop_words")
cleanjverne <- cleanjvernebks %>%
  anti_join(stop_words)

## Joining, by = "word"

First, lets use the NRC lexicon and filter() for the joy words.

## Joining, by = "word"

## # A tibble: 208 x 2
##    word        n
##    <chr>   <int>
##  1 found      62
##  2 journey    36
##  3 hope       20
##  4 honest     16
##  5 fortune    15
##  6 money      15
##  7 true       15
##  8 reward     12
##  9 gain       10
## 10 perfect    10
## # ... with 198 more rows
…
Sentiment through the narratives of Jules Verne novels

The plot of each novel changes toward more negative or positive sentiment over the trajectory of the story.

Comparing the three sentiment dictionaries

jour_center <- cleanjverne %>% 
  filter(book == "A Journey to the Center of the Earth")

jour_center

## # A tibble: 31,936 x 4
##    book                                 linenumber chapter word       
##    <chr>                                     <int>   <int> <chr>      
##  1 A Journey to the Center of the Earth          1       0 journey    
##  2 A Journey to the Center of the Earth          1       0 centre     
##  3 A Journey to the Center of the Earth          1       0 earth      
##  4 A Journey to the Center of the Earth          2       0 jules      
##  5 A Journey to the Center of the Earth          2       0 verne      
##  6 A Journey to the Center of the Earth          3       0 redactor's 
##  7 A Journey to the Center of the Earth          3       0 notejourney
##  8 A Journey to the Center of the Earth          3       0 centre     
##  9 A Journey to the Center of the Earth          3       0 earth      
## 10 A Journey to the Center of the Earth          4       0 v002       
## # ... with 31,926 more rows
…
(ref:comparecap)

Additonal Sentiment Lexicon: Syuzhet

Combing Syuzhet lexicon with Julves Vernes Corpus

syuz_jvernes <- cleanjverne %>%      #creates new dataframe "syuz_jvernes"
  inner_join(syuzhet, by = "word") #just joins words in syuzhet
syuz_jvernes

## # A tibble: 37,901 x 5
##    book                            linenumber chapter word        value
##    <chr>                                <int>   <int> <chr>       <dbl>
##  1 Around the World in Eighty Days          5       0 accept        1  
##  2 Around the World in Eighty Days          6       0 convinced     0.6
##  3 Around the World in Eighty Days          6       0 found         0.6
##  4 Around the World in Eighty Days          6       0 ideal         1  
##  5 Around the World in Eighty Days          7       0 dear          0.5
##  6 Around the World in Eighty Days         10       0 natural       0.6
##  7 Around the World in Eighty Days         10       0 impatience   -0.5
##  8 Around the World in Eighty Days         11       0 uselessness  -0.6
##  9 Around the World in Eighty Days         12       0 prudent       0.5
## 10 Around the World in Eighty Days         13       0 prove         0.6
## # ... with 37,891 more rows
…
Most common positive and negative words.

bing_word_counts <- cleanjverne %>%
  inner_join(get_sentiments("bing")) %>%
  count(word, sentiment, sort = TRUE) %>%
  ungroup()

## Joining, by = "word"

bing_word_counts

## # A tibble: 2,326 x 3
##    word       sentiment     n
##    <chr>      <chr>     <int>
##  1 master     positive    210
##  2 top        positive    198
##  3 doubt      negative    177
##  4 impossible negative    172
##  5 scarcely   negative    164
##  6 wild       negative    163
##  7 lost       negative    159
##  8 terror     negative    157
##  9 ready      positive    151
## 10 fell       negative    145
## # ... with 2,316 more rows
…
